<?xml version="1.0" encoding="UTF-8" standalone="no"?>
<svg:svg
   xmlns:dc="http://purl.org/dc/elements/1.1/"
   xmlns:cc="http://creativecommons.org/ns#"
   xmlns:rdf="http://www.w3.org/1999/02/22-rdf-syntax-ns#"
   xmlns:svg="http://www.w3.org/2000/svg"
   xmlns:sodipodi="http://sodipodi.sourceforge.net/DTD/sodipodi-0.dtd"
   xmlns:inkscape="http://www.inkscape.org/namespaces/inkscape"
   viewBox="0 0 384 512"
   version="1.1"
   id="svg22"
   sodipodi:docname="kickstarter.svg"
   inkscape:version="0.92.3 (2405546, 2018-03-11)"
   width="4in"
   height="5.3333335in">
  <svg:metadata
     id="metadata28">
    <rdf:RDF>
      <cc:Work
         rdf:about="">
        <dc:format>image/svg+xml</dc:format>
        <dc:type
           rdf:resource="http://purl.org/dc/dcmitype/StillImage" />
        <dc:title></dc:title>
      </cc:Work>
    </rdf:RDF>
  </svg:metadata>
  <svg:defs
     id="defs26" />
  <sodipodi:namedview
     pagecolor="#ffffff"
     bordercolor="#666666"
     borderopacity="1"
     objecttolerance="10"
     gridtolerance="10"
     guidetolerance="10"
     inkscape:pageopacity="0"
     inkscape:pageshadow="2"
     inkscape:window-width="1853"
     inkscape:window-height="1016"
     id="namedview24"
     showgrid="false"
     inkscape:zoom="3.1328126"
     inkscape:cx="45.678634"
     inkscape:cy="95.655771"
     inkscape:window-x="67"
     inkscape:window-y="27"
     inkscape:window-maximized="1"
     inkscape:current-layer="svg22"
     inkscape:measure-start="117.466,41.7357"
     inkscape:measure-end="113.157,42.4539"
     units="in" />
  <script>/* AskBlocker (extension) */
      (function(){
        
  let hasInteracted; // i.e. click, tap, or keypress

  window.addEventListener(&quot;load&quot;, function() {
    const onInteraction = function() {
      hasInteracted = true;

      // Remove event listeners; we don't want to be listening to every key press, etc.
      document.body.removeEventListener(&quot;click&quot;, onInteraction, true);
      document.removeEventListener(&quot;keypress&quot;, onInteraction, true);
      window.removeEventListener(&quot;touchstart&quot;, onInteraction, true);
    };
    document.body.addEventListener(&quot;click&quot;, onInteraction, true);
    document.addEventListener(&quot;keypress&quot;, onInteraction, true);
    window.addEventListener(&quot;touchstart&quot;, onInteraction, true);
  }, false);

  // Let's create some custom errors so we can emulate browser behaviour as closely as possible
  class CustomError extends Error {
    constructor(origin, ...args) {
      super(...args);

      // Maintains proper stack trace for where our error was thrown (only available on V8)
      if (Error.captureStackTrace) {
        Error.captureStackTrace(this, origin);
      }
    }
  }
  class DOMException extends CustomError {}
  class PositionError extends CustomError {}

  /**
   * This is called whenever a request is blocked. It contacts our extension to update UI, etc.
   * @param {subject} options
   * @property {string} options.name e.g. getUserMedia or geolocation.
   * @property {object} [additionalInfo]
   */
  const onBlock = function(name, additionalInfo) {
    window.postMessage(
      {
        // wrap in an additional object to avoid any of the page scripts accidentally reacting to it
        _askBlocker: {
          type: &quot;onBlock&quot;,
          payload: { name, additionalInfo }
        }
      },
      &quot;*&quot;
    );
  };

  /**
   * Whether the user has responsed to a request to enable this permission before, i.e. granted or denied it.
   * This is useful because if they have, then allowing the request won't trigger a popup, so we can let the browser do its thing.
   * @param {string} name - See permission registry: https://w3c.github.io/permissions/#permission-registry.
   * @param {object} [additionalArgs] - Contains any properties that need to be passed to the query call as well (e.g. sysex for MIDI).
   * @returns {object} - a promise which resolves to a Boolean
   */
  const hasRespondedToRequestPreviously = function(name, additionalArgs = {}) {
    if (!navigator.permissions) {
      return Promise.resolve(false);
    }

    return navigator.permissions
      .query(Object.assign(additionalArgs, { name }))
      .then(function(result) {
        return [&quot;denied&quot;, &quot;granted&quot;].includes(result.state);
      })
      .catch(function() {
        return false;
      });
  };

  const shouldAllowRequest = function() {
    // Don't block if they're on a chrome:// or about:// page
    return (
      [&quot;about:&quot;, &quot;chrome:&quot;].includes(window.location.protocol)
      // or if it's localhost
      || [&quot;localhost&quot;, &quot;127.0.0.1&quot;].includes(window.location.hostname)
      // or if they've navigated to this page from another page on the same domain
      || (
        document.referrer
        &amp;&amp; document.referrer !== window.location.href
        &amp;&amp; new RegExp(`^[a-z]+\:\/\/${window.location.host}`).test(document.referrer)
      )
      // or the user interacted with the page
      || hasInteracted
    );
  };

  if (&quot;geolocation&quot; in navigator) {
    const method = navigator.geolocation.getCurrentPosition;
    Object.assign(navigator.geolocation, {
      getCurrentPosition: function(successCallback, errorCallback, options) {
        const args = arguments;
        hasRespondedToRequestPreviously(&quot;geolocation&quot;).then(
          hasRespondedPreviously =&gt; {
            if (hasRespondedPreviously || shouldAllowRequest()) {
              method.apply(navigator.geolocation, args);
              return;
            }

            onBlock(&quot;geolocation&quot;, { options });
            errorCallback(new PositionError(method, &quot;User denied Geolocation&quot;));
          }
        );
      }
    });
  }

  const prepGetUserMedia = function({ audio, video } = {}) {
    const permissionsToCheck = [];
    if (audio) {
      // microphone or speaker
      permissionsToCheck.push(
        hasRespondedToRequestPreviously(&quot;microphone&quot;).then(function(hasRespondedPreviously) {
          if (hasRespondedPreviously) {
            return true;
          }
          return hasRespondedToRequestPreviously(&quot;speaker&quot;);
        })
      );
    }
    if (video) {
      permissionsToCheck.push(hasRespondedToRequestPreviously(&quot;camera&quot;));
    }

    let hasRespondedPreviously;
    // since hasRespondedToRequestPreviously resolves with false sometimes, the Promise.all call can return an array of Booleans
    if (permissionsToCheck.length) {
      hasRespondedPreviously = Promise.all(permissionsToCheck).then(function(permissions) {
        return permissions.every(hasResponded =&gt; hasResponded);
      });
    } else {
      hasRespondedPreviously = Promise.resolve(false);
    }

    return {
      hasRespondedPreviously
    };
  };

  // Deprecated callback based getUserMedia
  if (&quot;getUserMedia&quot; in navigator) {
    const method = navigator.getUserMedia;
    navigator.getUserMedia = function({ audio, video } = {}, successCallback, errorCallback) {
      const args = arguments;
      const { hasRespondedPreviously } = prepGetUserMedia({ audio, video });

      hasRespondedPreviously.then(hasResponded =&gt; {
        if (hasResponded || shouldAllowRequest()) {
          method.apply(navigator, arguments);
          return;
        }

        onBlock(&quot;getUserMedia&quot;, {
          audio: !!audio,
          video: !!video
        });
        errorCallback(new DOMException(method, &quot;Permission dismissed&quot;));
      });
    };
  }

  // Promise based getUserMedia
  if (&quot;mediaDevices&quot; in navigator &amp;&amp; &quot;getUserMedia&quot; in navigator.mediaDevices) {
    const method = navigator.mediaDevices.getUserMedia;
    navigator.mediaDevices.getUserMedia = function({ audio, video }) {
      const args = arguments;
      const { hasRespondedPreviously } = prepGetUserMedia({ audio, video });

      return hasRespondedPreviously.then(function(hasResponded) {
        if (hasResponded || shouldAllowRequest()) {
          return method.apply(navigator.mediaDevices, args);
        }

        onBlock(&quot;getUserMedia&quot;, {
          audio: !!audio,
          video: !!video
        });
        return new Promise(function() {});
      });
    };
  }

  if (&quot;Notification&quot; in window) {
    const method = Notification.requestPermission;
    class WrappedNotification extends Notification {
      static requestPermission(callback) {
        const args = arguments;

        return hasRespondedToRequestPreviously(&quot;notifications&quot;).then(hasRespondedPreviously =&gt; {
          if (hasRespondedPreviously || this.shouldAllowRequest()) {
            return method.apply(this, args);
          }

          onBlock(&quot;notifications&quot;);
          const result = &quot;default&quot;;
          // If they're using the old deprecated callback-based version of the API
          if (callback) {
            callback(result);
          }
          return Promise.resolve(result);
        });
      }
    }
    WrappedNotification.shouldAllowRequest = shouldAllowRequest;
    window.Notification = WrappedNotification;
  }

  if (&quot;requestMIDIAccess&quot; in navigator) {
    const method = navigator.requestMIDIAccess;
    navigator.requestMIDIAccess = function({ sysex } = {}) {
      const args = arguments;

      // If they're requesting sysex, we need to query the permissions API with that too, otherwise we could get false positives
      return hasRespondedToRequestPreviously(&quot;midi&quot;, { sysex }).then(hasRespondedPreviously =&gt; {
        if (hasRespondedPreviously || shouldAllowRequest()) {
          return method.apply(navigator, args);
        }

        onBlock(&quot;midi&quot;, {
          sysex: !!sysex
        });
        throw new DOMException(
          method,
          &quot;An attempt was made to break through the security policy of the user agent.&quot;
        );
      });
    };
  }

  if (&quot;storage&quot; in navigator &amp;&amp; &quot;persist&quot; in navigator.storage) {
    const method = navigator.storage.persist;
    navigator.storage.persist = function(...args) {
      return hasRespondedToRequestPreviously(&quot;persisted-storage&quot;)
        .then(function(hasRespondedPreviously) {
          if (hasRespondedPreviously || shouldAllowRequest()) {
            return method.apply(navigator.storage, args);
          }

          onBlock(&quot;persistent-storage&quot;);
          return false;
        });
    };
  }
}
      )()</script>
  <svg:g
     inkscape:groupmode="layer"
     id="layer1"
     inkscape:label="Edge.Cuts" />
  <svg:g
     id="g4697">
    <svg:g
       transform="translate(-0.36845418)"
       id="g3881">
      <svg:g
         id="g3874">
        <svg:path
           sodipodi:nodetypes="cscccccccssssssccccsssccscccc"
           inkscape:connector-curvature="0"
           id="path20"
           d="m 136.41814,467.53393 c 0.58477,-0.29325 0.52351,-0.24062 1.08564,-0.59929 1.12426,-0.71735 2.19759,-1.56685 3.19739,-2.55378 6.9439,-7.09822 7.02223,-17.33283 1.9043,-23.71094 l -23.35352,-29.52539 19.26367,-27.62109 c 4.47497,-6.3524 4.50156,-16.22895 -2.67382,-23.09571 -7.7926,-7.45828 -21.19273,-8.1259 -29.2168,3.29297 l -21.294922,30.39844 v -18.15625 c 0,-14.45362 -8.358222,-21.19141 -18.876953,-21.19141 -12.267568,0 -19.005859,9.30899 -19.005859,20.9336 v 72.7832 c 0,3.04118 0.406716,5.90234 1.216106,8.48343 0.80939,2.58108 2.021454,4.88209 3.63215,6.80295 1.610696,1.92085 3.619739,3.46455 5.472478,4.22536 v 6.04598 h 17.25673 v -6.04624 c 1.13904,-0.35648 3.146562,-1.46063 4.834215,-3.21271 1.687653,-1.75209 3.055436,-3.9687 4.001306,-6.67637 0.94587,-2.70767 1.469827,-5.90638 1.469827,-9.62266 V 428.8125 l 28.830082,35.56836 c 0.72975,0.87441 1.45394,1.76644 2.37567,2.44511 0.46086,0.33933 0.48798,0.41954 0.98837,0.70796 l 3.9e-4,6.18015 18.89394,-0.007 z"
           style="fill:none;stroke:#000000;stroke-width:1;stroke-miterlimit:4;stroke-dasharray:none" />
        <svg:path
           sodipodi:nodetypes="cssscccccccccccsscccccscscccssscccc"
           inkscape:connector-curvature="0"
           d="m 139.72709,470.08138 c 0.40966,-0.2617 0.81168,-0.53495 1.20525,-0.81931 0.78714,-0.56872 1.54049,-1.18186 2.25347,-1.8359 1.42597,-1.30808 2.69051,-2.77972 3.74122,-4.38662 2.10143,-3.21379 3.34753,-6.96858 3.31906,-11.03782 0.3771,-12.67668 -9.17682,-20.63215 -17.73053,-30.20281 -6.61252,-7.32745 -10.85476,-8.66217 -6.78147,-13.37754 6.41642,-10.15399 16.03325,-19.19597 19.6038,-30.96848 3.10641,-15.52677 -13.52111,-30.44861 -28.66016,-25.80468 -13.73925,4.22657 -18.7926,19.47189 -27.195308,29.56836 0.565113,-10.60441 -1.926484,-23.66682 -12.792969,-28.30664 -3.572493,-1.65359 -7.563238,-2.28721 -11.480469,-2.11133 -13.58806,-0.17949 -23.411227,14.10735 -21.746371,26.92181 0.374433,25.9733 -0.844705,52.01271 0.623325,77.94538 0.263634,1.58399 0.709979,3.10056 1.313218,4.5355 0.603238,1.43493 1.36337,2.78823 2.254579,4.04567 0.891209,1.25744 1.913495,2.41902 3.041042,3.47053 1.127546,1.05151 0.906359,1.16846 2.218609,1.9856 v 9.25896 l 27.418759,-0.007 -0.09386,-9.25174 c 1.13735,-0.89351 2.177219,-1.9049 3.115729,-3.01008 0.938511,-1.10517 1.775664,-2.30413 2.507583,-3.57278 0.73192,-1.26865 1.358607,-2.60699 1.876185,-3.99092 0.517578,-1.38394 0.926047,-2.81346 1.221533,-4.26448 0.295486,-1.45102 0.477988,-2.92353 0.54363,-4.39345 0.06564,-1.46991 0.01443,-2.93722 -0.157525,-4.37784 0.09721,-3.06908 -0.874641,-8.98699 2.339478,-3.24036 4.040188,4.73945 7.73804,9.87609 11.646332,14.8079 1.95414,2.4659 3.9609,4.8806 6.08937,7.16884 1.06423,1.14412 2.15889,2.25662 3.29262,3.3281 0.56686,0.53575 1.14349,1.06123 1.73097,1.57529 v 9.23799 l 25.2829,-0.007 z"
           style="fill:none;stroke:#000000;stroke-width:1;stroke-miterlimit:4;stroke-dasharray:none"
           id="path20-8" />
      </svg:g>
      <svg:rect
         style="fill:none;stroke:#000000;stroke-width:0.60386527;stroke-miterlimit:4;stroke-dasharray:none"
         id="rect875"
         width="18.671724"
         height="5.6323552"
         x="57.086857"
         y="482.92593" />
      <svg:rect
         style="fill:none;stroke:#000000;stroke-width:0.63467473;stroke-miterlimit:4;stroke-dasharray:none"
         id="rect875-7"
         width="20.625608"
         height="5.6323552"
         x="116.66288"
         y="482.94135" />
    </svg:g>
    <svg:rect
       ry="19.790524"
       style="fill:none;stroke:#000000;stroke-opacity:1"
       y="324.62845"
       x="12.448877"
       height="176.83791"
       width="167.90024"
       id="rect3883" />
  </svg:g>
</svg:svg>
<!--
Font Awesome Free 5.4.1 by @fontawesome - https://fontawesome.com
License - https://fontawesome.com/license/free (Icons: CC BY 4.0, Fonts: SIL OFL 1.1, Code: MIT License)
-->

