EESchema Schematic File Version 5
LIBS:kickbadge-cache
EELAYER 29 0
EELAYER END
$Descr A4 11693 8268
encoding utf-8
Sheet 1 1
Title ""
Date ""
Rev ""
Comp ""
Comment1 ""
Comment2 ""
Comment3 ""
Comment4 ""
$EndDescr
$Comp
L Device:Battery BT1
U 1 1 5CAE29F6
P 2900 3800
F 0 "BT1" H 3008 3846 50  0000 L CNN
F 1 "Battery" H 3008 3755 50  0000 L CNN
F 2 "kickbadge:Keystone-3000" V 2900 3860 50  0001 C CNN
F 3 "~" V 2900 3860 50  0001 C CNN
	1    2900 3800
	1    0    0    -1  
$EndComp
$Comp
L Device:LED D1
U 1 1 5CAE3353
P 3400 3650
F 0 "D1" V 3439 3533 50  0000 R CNN
F 1 "LED" V 3348 3533 50  0000 R CNN
F 2 "LED_SMD:LED_0603_1608Metric_Pad1.05x0.95mm_HandSolder" H 3400 3650 50  0001 C CNN
F 3 "~" H 3400 3650 50  0001 C CNN
	1    3400 3650
	0    -1   -1   0   
$EndComp
$Comp
L Device:LED D2
U 1 1 5CAE3A0E
P 3850 3650
F 0 "D2" V 3889 3533 50  0000 R CNN
F 1 "LED" V 3798 3533 50  0000 R CNN
F 2 "LED_SMD:LED_0603_1608Metric_Pad1.05x0.95mm_HandSolder" H 3850 3650 50  0001 C CNN
F 3 "~" H 3850 3650 50  0001 C CNN
	1    3850 3650
	0    -1   -1   0   
$EndComp
$Comp
L power:VCC #PWR03
U 1 1 5CB01C34
P 3650 3150
F 0 "#PWR03" H 3650 3000 50  0001 C CNN
F 1 "VCC" H 3667 3323 50  0000 C CNN
F 2 "" H 3650 3150 50  0001 C CNN
F 3 "" H 3650 3150 50  0001 C CNN
	1    3650 3150
	1    0    0    -1  
$EndComp
$Comp
L power:VCC #PWR01
U 1 1 5CB03118
P 2900 3400
F 0 "#PWR01" H 2900 3250 50  0001 C CNN
F 1 "VCC" H 2917 3573 50  0000 C CNN
F 2 "" H 2900 3400 50  0001 C CNN
F 3 "" H 2900 3400 50  0001 C CNN
	1    2900 3400
	1    0    0    -1  
$EndComp
Wire Wire Line
	2900 3400 2900 3600
$Comp
L power:GND #PWR04
U 1 1 5CB0500A
P 3650 4350
F 0 "#PWR04" H 3650 4100 50  0001 C CNN
F 1 "GND" H 3655 4177 50  0000 C CNN
F 2 "" H 3650 4350 50  0001 C CNN
F 3 "" H 3650 4350 50  0001 C CNN
	1    3650 4350
	1    0    0    -1  
$EndComp
$Comp
L power:GND #PWR02
U 1 1 5CB0705D
P 2900 4250
F 0 "#PWR02" H 2900 4000 50  0001 C CNN
F 1 "GND" H 2905 4077 50  0000 C CNN
F 2 "" H 2900 4250 50  0001 C CNN
F 3 "" H 2900 4250 50  0001 C CNN
	1    2900 4250
	1    0    0    -1  
$EndComp
Wire Wire Line
	2900 4000 2900 4250
$Comp
L power:VCC #PWR05
U 1 1 5CB09E19
P 4850 3300
F 0 "#PWR05" H 4850 3150 50  0001 C CNN
F 1 "VCC" H 4867 3473 50  0000 C CNN
F 2 "" H 4850 3300 50  0001 C CNN
F 3 "" H 4850 3300 50  0001 C CNN
	1    4850 3300
	1    0    0    -1  
$EndComp
Wire Wire Line
	4850 3300 4850 3450
$Comp
L power:GND #PWR07
U 1 1 5CB0A459
P 4950 3050
F 0 "#PWR07" H 4950 2800 50  0001 C CNN
F 1 "GND" H 4955 2877 50  0000 C CNN
F 2 "" H 4950 3050 50  0001 C CNN
F 3 "" H 4950 3050 50  0001 C CNN
	1    4950 3050
	-1   0    0    1   
$EndComp
$Comp
L power:VCC #PWR09
U 1 1 5CB0F695
P 5300 3300
F 0 "#PWR09" H 5300 3150 50  0001 C CNN
F 1 "VCC" H 5317 3473 50  0000 C CNN
F 2 "" H 5300 3300 50  0001 C CNN
F 3 "" H 5300 3300 50  0001 C CNN
	1    5300 3300
	1    0    0    -1  
$EndComp
Wire Wire Line
	5300 3300 5300 3450
$Comp
L power:GND #PWR011
U 1 1 5CB0F6A0
P 5400 3050
F 0 "#PWR011" H 5400 2800 50  0001 C CNN
F 1 "GND" H 5405 2877 50  0000 C CNN
F 2 "" H 5400 3050 50  0001 C CNN
F 3 "" H 5400 3050 50  0001 C CNN
	1    5400 3050
	-1   0    0    1   
$EndComp
Wire Wire Line
	5400 3050 5400 3450
Wire Wire Line
	3650 4000 3850 4000
Wire Wire Line
	3850 4000 3850 3800
Wire Wire Line
	3650 4000 3650 4350
Wire Wire Line
	3650 4000 3400 4000
Wire Wire Line
	3400 4000 3400 3800
Connection ~ 3650 4000
Wire Wire Line
	3400 3500 3400 3400
Wire Wire Line
	3400 3400 3650 3400
Wire Wire Line
	3650 3150 3650 3400
Wire Wire Line
	3650 3400 3850 3400
Wire Wire Line
	3850 3400 3850 3500
Connection ~ 3650 3400
Wire Wire Line
	4950 3050 4950 3450
$Comp
L Connector:Conn_01x02_Male J3
U 1 1 5CB37C99
P 5300 3650
F 0 "J3" V 5454 3462 50  0000 R CNN
F 1 "K-R-F" V 5350 3500 50  0000 R CNN
F 2 "kickbadge:connector_01x02" H 5300 3650 50  0001 C CNN
F 3 "~" H 5300 3650 50  0001 C CNN
	1    5300 3650
	0    -1   -1   0   
$EndComp
$Comp
L Connector:Conn_01x02_Male J1
U 1 1 5CB3A94D
P 4850 3650
F 0 "J1" V 5000 3850 50  0000 R CNN
F 1 "K-L-F" V 4900 3950 50  0000 R CNN
F 2 "kickbadge:connector_01x02" H 4850 3650 50  0001 C CNN
F 3 "~" H 4850 3650 50  0001 C CNN
	1    4850 3650
	0    -1   -1   0   
$EndComp
$Comp
L Connector:Conn_01x02_Male J2
U 1 1 5CB3C876
P 6850 3500
F 0 "J2" V 7004 3312 50  0000 R CNN
F 1 "FT-L-R" V 6900 3350 50  0000 R CNN
F 2 "kickbadge:connector_01x02" H 6850 3500 50  0001 C CNN
F 3 "~" H 6850 3500 50  0001 C CNN
	1    6850 3500
	0    1    1    0   
$EndComp
$Comp
L Connector:Conn_01x02_Male J4
U 1 1 5CB3C880
P 8600 3500
F 0 "J4" V 8750 3600 50  0000 R CNN
F 1 "F-T-R" V 8650 3800 50  0000 R CNN
F 2 "kickbadge:connector_01x02" H 8600 3500 50  0001 C CNN
F 3 "~" H 8600 3500 50  0001 C CNN
	1    8600 3500
	0    1    1    0   
$EndComp
$Comp
L power:VCC #PWR0101
U 1 1 5CB4CA61
P 6750 3900
F 0 "#PWR0101" H 6750 3750 50  0001 C CNN
F 1 "VCC" H 6768 4073 50  0000 C CNN
F 2 "" H 6750 3900 50  0001 C CNN
F 3 "" H 6750 3900 50  0001 C CNN
	1    6750 3900
	-1   0    0    1   
$EndComp
$Comp
L power:GND #PWR0102
U 1 1 5CB4D087
P 6850 4150
F 0 "#PWR0102" H 6850 3900 50  0001 C CNN
F 1 "GND" H 6855 3977 50  0000 C CNN
F 2 "" H 6850 4150 50  0001 C CNN
F 3 "" H 6850 4150 50  0001 C CNN
	1    6850 4150
	1    0    0    -1  
$EndComp
Wire Wire Line
	6850 4150 6850 3700
Wire Wire Line
	6750 3900 6750 3700
$Comp
L power:VCC #PWR0103
U 1 1 5CB5050F
P 8500 3850
F 0 "#PWR0103" H 8500 3700 50  0001 C CNN
F 1 "VCC" H 8518 4023 50  0000 C CNN
F 2 "" H 8500 3850 50  0001 C CNN
F 3 "" H 8500 3850 50  0001 C CNN
	1    8500 3850
	-1   0    0    1   
$EndComp
$Comp
L power:GND #PWR0104
U 1 1 5CB50B42
P 8600 4100
F 0 "#PWR0104" H 8600 3850 50  0001 C CNN
F 1 "GND" H 8605 3927 50  0000 C CNN
F 2 "" H 8600 4100 50  0001 C CNN
F 3 "" H 8600 4100 50  0001 C CNN
	1    8600 4100
	1    0    0    -1  
$EndComp
$Comp
L power:VCC #PWR0105
U 1 1 5CB5874B
P 7150 3900
F 0 "#PWR0105" H 7150 3750 50  0001 C CNN
F 1 "VCC" H 7167 4073 50  0000 C CNN
F 2 "" H 7150 3900 50  0001 C CNN
F 3 "" H 7150 3900 50  0001 C CNN
	1    7150 3900
	-1   0    0    1   
$EndComp
$Comp
L power:GND #PWR0106
U 1 1 5CB58756
P 7050 4150
F 0 "#PWR0106" H 7050 3900 50  0001 C CNN
F 1 "GND" H 7055 3977 50  0000 C CNN
F 2 "" H 7050 4150 50  0001 C CNN
F 3 "" H 7050 4150 50  0001 C CNN
	1    7050 4150
	1    0    0    -1  
$EndComp
$Comp
L power:VCC #PWR0107
U 1 1 5CB58760
P 8250 3850
F 0 "#PWR0107" H 8250 3700 50  0001 C CNN
F 1 "VCC" H 8267 4023 50  0000 C CNN
F 2 "" H 8250 3850 50  0001 C CNN
F 3 "" H 8250 3850 50  0001 C CNN
	1    8250 3850
	-1   0    0    1   
$EndComp
Wire Wire Line
	8250 3850 8250 3700
$Comp
L power:GND #PWR0108
U 1 1 5CB5876B
P 8150 4100
F 0 "#PWR0108" H 8150 3850 50  0001 C CNN
F 1 "GND" H 8155 3927 50  0000 C CNN
F 2 "" H 8150 4100 50  0001 C CNN
F 3 "" H 8150 4100 50  0001 C CNN
	1    8150 4100
	1    0    0    -1  
$EndComp
Wire Wire Line
	8150 4100 8150 3700
$Comp
L Connector:Conn_01x02_Male J7
U 1 1 5CB58777
P 8250 3500
F 0 "J7" V 8404 3312 50  0000 R CNN
F 1 "FT-T-L" V 8300 3350 50  0000 R CNN
F 2 "kickbadge:connector_01x02" H 8250 3500 50  0001 C CNN
F 3 "~" H 8250 3500 50  0001 C CNN
	1    8250 3500
	0    1    1    0   
$EndComp
$Comp
L Connector:Conn_01x02_Male J6
U 1 1 5CB5878B
P 4950 3750
F 0 "J6" V 5104 3562 50  0000 R CNN
F 1 "K-L-B" V 5000 3600 50  0000 R CNN
F 2 "kickbadge:connector_01x02" H 4950 3750 50  0001 C CNN
F 3 "~" H 4950 3750 50  0001 C CNN
	1    4950 3750
	0    1    1    0   
$EndComp
$Comp
L Connector:Conn_01x02_Male J8
U 1 1 5CB58795
P 5400 3750
F 0 "J8" V 5550 3850 50  0000 R CNN
F 1 "K-R-B" V 5450 4050 50  0000 R CNN
F 2 "kickbadge:connector_01x02" H 5400 3750 50  0001 C CNN
F 3 "~" H 5400 3750 50  0001 C CNN
	1    5400 3750
	0    1    1    0   
$EndComp
$Comp
L power:VCC #PWR0109
U 1 1 5CB5879F
P 4850 4150
F 0 "#PWR0109" H 4850 4000 50  0001 C CNN
F 1 "VCC" H 4868 4323 50  0000 C CNN
F 2 "" H 4850 4150 50  0001 C CNN
F 3 "" H 4850 4150 50  0001 C CNN
	1    4850 4150
	-1   0    0    1   
$EndComp
$Comp
L power:GND #PWR0110
U 1 1 5CB587A9
P 4950 4400
F 0 "#PWR0110" H 4950 4150 50  0001 C CNN
F 1 "GND" H 4955 4227 50  0000 C CNN
F 2 "" H 4950 4400 50  0001 C CNN
F 3 "" H 4950 4400 50  0001 C CNN
	1    4950 4400
	1    0    0    -1  
$EndComp
Wire Wire Line
	4950 4400 4950 3950
Wire Wire Line
	4850 4150 4850 3950
Wire Wire Line
	5400 4400 5400 3950
Wire Wire Line
	5300 3950 5300 4150
$Comp
L power:VCC #PWR0111
U 1 1 5CB587B7
P 5300 4150
F 0 "#PWR0111" H 5300 4000 50  0001 C CNN
F 1 "VCC" H 5318 4323 50  0000 C CNN
F 2 "" H 5300 4150 50  0001 C CNN
F 3 "" H 5300 4150 50  0001 C CNN
	1    5300 4150
	-1   0    0    1   
$EndComp
$Comp
L power:GND #PWR0112
U 1 1 5CB587C1
P 5400 4400
F 0 "#PWR0112" H 5400 4150 50  0001 C CNN
F 1 "GND" H 5405 4227 50  0000 C CNN
F 2 "" H 5400 4400 50  0001 C CNN
F 3 "" H 5400 4400 50  0001 C CNN
	1    5400 4400
	1    0    0    -1  
$EndComp
Text Label 4850 4100 1    50   ~ 0
VCC
Text Label 5300 4100 1    50   ~ 0
VCC
Text Label 7150 3850 1    50   ~ 0
VCC
Text Label 8250 3850 1    50   ~ 0
VCC
Text Label 7050 3850 1    50   ~ 0
GND
Text Label 8150 3850 1    50   ~ 0
GND
Text Label 4950 3950 3    50   ~ 0
GND
Text Label 5400 3950 3    50   ~ 0
GND
$Comp
L Connector:Conn_01x02_Male J5
U 1 1 5CB58781
P 7150 3500
F 0 "J5" V 7300 3700 50  0000 R CNN
F 1 "FT-L-L" V 7200 3800 50  0000 R CNN
F 2 "kickbadge:connector_01x02" H 7150 3500 50  0001 C CNN
F 3 "~" H 7150 3500 50  0001 C CNN
	1    7150 3500
	0    1    1    0   
$EndComp
Wire Wire Line
	8500 3850 8500 3700
Wire Wire Line
	8600 4100 8600 3700
Wire Wire Line
	7150 3700 7150 3900
Wire Wire Line
	7050 3700 7050 4150
Text Notes 6850 3350 0    79   ~ 0
BASE BOARD CONNECTIONS
Wire Notes Line
	6300 3100 8950 3100
Wire Notes Line
	8950 3100 8950 4450
Wire Notes Line
	8950 4450 6300 4450
Wire Notes Line
	6300 4450 6300 3100
Text Notes 5800 3650 0    50   ~ 0
FRONT
Text Notes 5800 3850 0    50   ~ 0
BACK
Text Notes 4800 2750 0    50   ~ 0
LEFT
Text Notes 5300 2750 0    50   ~ 0
RIGHT
Wire Notes Line
	5150 2600 5150 4700
Wire Notes Line
	4450 4700 4450 2600
Wire Notes Line
	6100 2600 6100 4700
Wire Notes Line
	4450 2600 6100 2600
Wire Notes Line
	4450 4700 6100 4700
Wire Notes Line
	4400 3700 6100 3700
$EndSCHEMATC
